* Prepare Water for CHARMM
*

prnlev 5
wrnlev 5
bomlev -1

! Read topology and parameter files
read rtf card name ../../toppar/top_all36_prot.rtf
read rtf card append name ../../toppar/top_all36_cgenff.rtf

read para card flex name ../../toppar/par_all36_prot.prm
read para card append flex name ../../toppar/par_all36_cgenff.prm

stream ../../toppar/toppar_water_ions.str

! Read sequence from the PDB coordinate file
open unit 1 card read name segment-a-good.pdb
read sequ pdb unit 1
close unit 1

! Now generate the PSF and also the IC table (SETU keyword)
generate ghet first none last none noangle nodihedral 

! Read heteroatom coord from the PDB coordinate file
open unit 1 card read name segment-a-good.pdb
read coor pdb unit 1
close unit 1

print coor

! Prints out number of atoms that still have undefined coordinates.
define water select segid e-pro .and. ( .not. hydrogen ) .and. ( .not. init ) show end

ic gene
ic para
hbuild selec all end

! Write out the protein structure file (psf) and
! the coordinate file in pdb and crd format.

energy

write psf card name  goodhet_final.psf unit 1
* PSF
*

write coor pdb name  goodhet_final.pdb unit 1
* PDB Coords
*

write coor card name goodhet_final.cor unit 1
* Coords
*

stop




