41
4
79
177
30
78
122
104
71
113
155
114
83
143
123
55
140
152
24
49
72
144
119
68
9
26
25
170
130
75
13
126
18
39
14
136
58
27
82
67
157
34
37
32
2
124
131
80
10
43
31
66
127
139
154
61
175
85
36
95
125
16
17
150
50
89
38
97
45
8
101
158
53
105
142
174
163
40
51
86
133
146
134
20
5
135
3
77
167
15
84
176
165
102
76
90
145
166
92
162
169
11
153
138
48
173
91
81
44
103
47
118
64
109
52
107
19
59
62
149
172
111
141
164
1
93
74
12
57
98
22
73
23
106
159
69
156
21
171
110
33
108
87
46
148
117
112
99
54
116
