* Append the waters to the native ligand
*

prnlev 5
wrnlev 5
bomlev -2

! Read topology and parameter files
read rtf card name ../../toppar/top_all36_cgenff.rtf
read rtf card append name ../../toppar/top_all36_prot.rtf

read para card flex name ../../toppar/par_all36_cgenff.prm
read para card append flex name ../../toppar/par_all36_prot.prm

! If you have heme ligand then use below stream file too
!stream toppar_all36_prot_heme.str

! If you do not have a co-factor/co-crystallized ligand, you
! do not need native.str
stream native.str
stream ../../toppar/toppar_water_ions.str

open unit 1 card read name goodhet_final.psf 
read psf card unit 1 
close unit 1 

! If you do not have a co-factor/co-crystallized ligand, 
! comment out these native_final.psf/.cor read commands
open unit 2 card read name native_final.psf
read psf card append unit 2
close unit 2

open unit 11 card read name goodhet_final.cor 
read coor card unit 11 resi 

! If you do not have a co-factor/co-crystallized ligand,
! comment out these native_final.psf/.cor read commands
open unit 22 card read name native_final.cor
read coor card unit 22 resi 


print coor 

! Prints out number of atoms that still have undefined coordinates.
define water select segid GHET .and. ( .not. hydrogen ) .and. ( .not. init ) show end
define ligand select segid A-BAD .and. ( .not. hydrogen ) .and. ( .not. init ) show end

ic gene
ic para
hbuild sele all end

! Write out the protein structure file (psf) and
! the coordinate file in pdb and crd format.

energy

write psf card name  ligand_final.psf unit 1
* PSF
*

write coor pdb name  ligand_final.pdb unit 1
* PDB Coords
*
 
write coor card name ligand_final.cor unit 1
* Coords
*
 
stop



