* Run this if confab was unsuccessful in generating conformations
* Generates conformations by rotating bonds with CHARMM
* 

dimension chsize 1500000

prnlev 5
wrnlev 5
bomlev -2

! Read topology and parameter files
read rtf card name ../../toppar/top_all36_prot.rtf
read rtf card append name ../../toppar/top_all36_cgenff.rtf
!read rtf card append name @ligandsegid.rtf

read para card flex name ../../toppar/par_all36_prot.prm
read para card append flex name ../../toppar/par_all36_cgenff.prm
!read para card append flex name @ligandsegid.prm

stream @ligandsegid.str

read sequence card
* @ligandsegid ligand
*
  1
@ligandsegid  ! 4-letter segid of your choice
     ! make sure you have the same seg-id name in the stream file too
generate @ligandsegid first none last none setup warn
print coor

set k 0
label looppdb
    incr k by 1
    bomlev -2 

    open unit 13 read card name @ligandsegid-confab1.pdb
    read coor pdb unit 13
    close unit 13
   
    bomlev -2
    ic gene
    ic fill 
    !hbuild sele all end 
    energy
    print coor 
    cons fix sele .not. type h* end
    mini abnr nstep 1000 nprint 100 tolg 0.001 
    cons fix sele none end  

    RANDom uniform scale 12
    FORMat (I5)
    echo ?random
    set numb ?random
    FORMat
    if numb eq 0 then incr numb by 1
    calc phi = @numb * 30

    RANDom uniform scale 3
    FORMat (I5)
    echo ?random
    set direcnum ?random
    FORMAT
    IF @direcnum eq 0 THEN incr direcnum by 1
    
    IF @direcnum eq 1 THEN
    coor rotate XDIR 1.0 phi @phi select segid @ligandsegid end
    ENDIF
    IF @direcnum eq 2 THEN
    coor rotate YDIR 1.0 phi @phi select segid @ligandsegid end
    ENDIF
    IF @direcnum eq 3 THEN
    coor rotate ZDIR 1.0 phi @phi select segid @ligandsegid end
    ENDIF
    

    if @k le 45 then goto pdb_final_coor 


label pdb_final_coor
write psf card name @ligandsegid_confab_final@k.psf unit 1
* PSF
*

write coor card name @ligandsegid_confab_final@k.cor unit 1
* Coords
*

write coor pdb card name @ligandsegid_confab_final@k.pdb unit 1
* PDB
*


if @k le 200 goto looppdb


system "`echo ls -l hmd_confab_final*.pdb |  awk '{print tolower($0)}'` | wc -l > number_of_ligand_conf"
stop
